…
Next, create the document term matrix, this time we will use `gamma` that looks at document probability of falling into one topic or the other.

``` r
narrative_dtm <- tidy_narrative_words %>% cast_dtm(document, word, n)
narrative_lda <- LDA(narrative_dtm, k = 2, control = list(seed = 1234))
narrative_documents <- tidy(narrative_lda, matrix = "gamma")

narrative_documents %>% arrange(document)
```

    ## # A tibble: 41,252 x 3
    ##    document               topic gamma
    ##    <chr>                  <int> <dbl>
    ##  1 Highly Qualified_10        1 0.507
    ##  2 Highly Qualified_10        2 0.493
    ##  3 Highly Qualified_100       1 0.488
    ##  4 Highly Qualified_100       2 0.512
    ##  5 Highly Qualified_10002     1 0.507
    ##  6 Highly Qualified_10002     2 0.493
    ##  7 Highly Qualified_10003     1 0.491
    ##  8 Highly Qualified_10003     2 0.509
    ##  9 Highly Qualified_10004     1 0.492
    ## 10 Highly Qualified_10004     2 0.508
    ## # ... with 41,242 more rows

Create `narrative_classifications` that picks the higher `gamma` and uses that to classify the narrative as either falling in topic 1 or topic 2.

``` r
narrative_classifications <- narrative_documents %>% 
  separate(document, c("label", "narrative"), sep = "_", convert = TRUE) %>% 
  group_by(label, narrative) %>% 
  top_n(1, gamma) %>% ungroup()

narrative_classifications
```

    ## # A tibble: 20,626 x 4
    ##    label            narrative topic gamma
    ##    <chr>                <int> <int> <dbl>
    ##  1 Highly Qualified      2023     1 0.518
    ##  2 Highly Qualified      2121     1 0.501
    ##  3 Highly Qualified      4121     1 0.507
    ##  4 Highly Qualified      8299     1 0.515
    ##  5 Most Qualified       16143     1 0.501
    ##  6 Most Qualified        2219     1 0.529
    ##  7 Most Qualified        3645     1 0.508
    ##  8 Highly Qualified     11754     1 0.504
    ##  9 Highly Qualified     11795     1 0.509
    ## 10 Highly Qualified     11951     1 0.506
    ## # ... with 20,616 more rows
…
#Wrong words that put us in the wrong cluster
wrong_words <- assignments1 %>% 
  select(-c(narrative)) %>% 
  filter(label != consensus) %>% 
  group_by(label, consensus, term) %>% 
  count(term, sort = TRUE) %>% ungroup() %>% 
  group_by(label) %>% arrange(desc(n))

wrong_words
```

    ## # A tibble: 7,239 x 4
    ## # Groups:   label [2]
    ##    label            consensus        term          n
    ##    <chr>            <chr>            <chr>     <int>
    ##  1 Most Qualified   Highly Qualified potential  6420
    ##  2 Highly Qualified Most Qualified   promote    6375
    ##  3 Highly Qualified Most Qualified   top        5789
    ##  4 Most Qualified   Highly Qualified officer    3616
    ##  5 Highly Qualified Most Qualified   unlimited  3595
    ##  6 Highly Qualified Most Qualified   battalion  3571
    ##  7 Most Qualified   Highly Qualified select     3539
    ##  8 Highly Qualified Most Qualified   company    3134
    ##  9 Most Qualified   Highly Qualified peers      3057
    ## 10 Highly Qualified Most Qualified   positions  2900
    ## # ... with 7,229 more rows
…
tidy_narrative_bigram <- bigram_narrative_filter %>% 
  unite(bigram, word1, word2, sep = " ") %>% 
  count(document, bigram, sort=TRUE) %>% ungroup()
```

Next, create the document term matrix and use `gamma` to analyze document probability.

``` r
narrative_bigram_dtm <- tidy_narrative_bigram %>% cast_dtm(document, bigram, n)
narrative_bigram_lda <- LDA(narrative_bigram_dtm, k = 2, control = list(seed = 1234))
narrative_bigram_documents <- tidy(narrative_bigram_lda, matrix = "gamma")
narrative_bigram_documents %>% arrange(document)
```

    ## # A tibble: 41,220 x 3
    ##    document               topic gamma
    ##    <chr>                  <int> <dbl>
    ##  1 Highly Qualified_10        1 0.508
    ##  2 Highly Qualified_10        2 0.492
    ##  3 Highly Qualified_100       1 0.509
    ##  4 Highly Qualified_100       2 0.491
    ##  5 Highly Qualified_10002     1 0.503
    ##  6 Highly Qualified_10002     2 0.497
    ##  7 Highly Qualified_10003     1 0.501
    ##  8 Highly Qualified_10003     2 0.499
    ##  9 Highly Qualified_10004     1 0.501
    ## 10 Highly Qualified_10004     2 0.499
    ## # ... with 41,210 more rows

Create classifications for bigrams that will pick the higher `gamma` to classify the narrative as either falling in topic 1 or topic 2.

``` r
narrative_bigram_classifications <- narrative_bigram_documents %>% 
  separate(document, c("label", "narrative"), sep = "_", convert = TRUE) %>% 
  group_by(label, narrative) %>% 
  top_n(1, gamma) %>% ungroup()
narrative_bigram_classifications
```

    ## # A tibble: 20,610 x 4
    ##    label            narrative topic gamma
    ##    <chr>                <int> <int> <dbl>
    ##  1 Highly Qualified     12530     1 0.516
    ##  2 Highly Qualified     14918     1 0.504
    ##  3 Highly Qualified     15102     1 0.500
    ##  4 Highly Qualified     17087     1 0.507
    ##  5 Highly Qualified     18262     1 0.517
    ##  6 Highly Qualified     19954     1 0.514
    ##  7 Highly Qualified      4210     1 0.514
    ##  8 Highly Qualified      4275     1 0.512
    ##  9 Highly Qualified      4593     1 0.502
    ## 10 Highly Qualified       558     1 0.515
    ## # ... with 20,600 more rows
…
See how well we were able to cluster, based on individual words

``` r
assignments <- augment(narrative_bigram_lda, data = narrative_bigram_dtm)

assignments1 <- assignments %>% 
  separate(document, c("label", "narrative"), sep = "_", convert = TRUE) %>% 
  inner_join(narrative_bigram_topics, by = c(".topic" = "topic"))

assignments1 %>% group_by(label, consensus, term) %>% 
  count(term, sort = TRUE) %>% 
  ungroup %>% group_by(consensus) %>% filter(n >= 50) %>% top_n(20)
```

    ## # A tibble: 40 x 4
    ## # Groups:   consensus [2]
    ##    label            consensus        term                         n
    ##    <chr>            <chr>            <chr>                    <int>
    ##  1 Most Qualified   Most Qualified   unlimited potential       3559
    ##  2 Highly Qualified Most Qualified   unlimited potential       3275
    ##  3 Most Qualified   Highly Qualified promote ahead             1087
    ##  4 Most Qualified   Most Qualified   field grade               1071
    ##  5 Highly Qualified Highly Qualified top 10                    1025
    ##  6 Most Qualified   Most Qualified   resident ile              1023
    ##  7 Highly Qualified Most Qualified   increased responsibility   995
    ##  8 Highly Qualified Most Qualified   field grade                975
    ##  9 Most Qualified   Highly Qualified top 10                     954
    ## 10 Most Qualified   Most Qualified   top 5                      890
    ## # ... with 30 more rows

``` r
wrong_bigrams <- assignments1 %>% select(-c(narrative)) %>% 
  filter(label != consensus) %>% 
  group_by(label, consensus, term) %>% 
  count(term, sort = TRUE) %>% ungroup() %>% 
  group_by(label) %>% arrange(desc(n))

wrong_bigrams
```

    ## # A tibble: 30,476 x 4
    ## # Groups:   label [2]
    ##    label            consensus        term                         n
    ##    <chr>            <chr>            <chr>                    <int>
    ##  1 Highly Qualified Most Qualified   unlimited potential       3275
    ##  2 Most Qualified   Highly Qualified promote ahead             1087
    ##  3 Highly Qualified Most Qualified   increased responsibility   995
    ##  4 Highly Qualified Most Qualified   field grade                975
    ##  5 Most Qualified   Highly Qualified top 10                     954
    ##  6 Most Qualified   Highly Qualified resident cgsc              761
    ##  7 Highly Qualified Most Qualified   resident ile               696
    ##  8 Most Qualified   Highly Qualified future battalion           651
    ##  9 Highly Qualified Most Qualified   rating period              636
    ## 10 Most Qualified   Highly Qualified potential promote          603
    ## # ... with 30,466 more rows
…
